Template,VM Name,IP Address,Disk Size,Folder,Cluster,Datastore,Partial Hostname,Port,Target Type
9.0.0-14 preprod template,raghavcsv1,10.201.2.251,200,pre-prod,DEN3-UNIT03,,hostname1,1925,nlc
9.0.0-14 preprod template,raghavcsv2,10.201.2.252,300,pre-prod,DEN3-UNIT03,,hostname2,1926,ucltr
